-- Merging decision tree log ---
manifest
ADDED from C:\Jcodes\React Projects\eventsapp\android\app\src\main\AndroidManifest.xml:1:1-25:12
INJECTED from C:\Jcodes\React Projects\eventsapp\android\app\src\main\AndroidManifest.xml:1:1-25:12
INJECTED from C:\Jcodes\React Projects\eventsapp\android\app\src\main\AndroidManifest.xml:1:1-25:12
INJECTED from C:\Jcodes\React Projects\eventsapp\android\app\src\main\AndroidManifest.xml:1:1-25:12
MERGED from C:\Jcodes\React Projects\eventsapp\android\app\src\main\AndroidManifest.xml:1:1-25:12
MERGED from [com.facebook.flipper:flipper:0.99.0] C:\Users\oagu1\.gradle\caches\transforms-3\2f5725507f1929c6ddf8255f0bef77bd\transformed\jetified-flipper-0.99.0\AndroidManifest.xml:8:1-18:12
MERGED from [com.facebook.flipper:flipper-network-plugin:0.99.0] C:\Users\oagu1\.gradle\caches\transforms-3\2c29b736c8f2a9d82fade7115b471d70\transformed\jetified-flipper-network-plugin-0.99.0\AndroidManifest.xml:8:1-15:12
MERGED from [com.facebook.flipper:flipper-fresco-plugin:0.99.0] C:\Users\oagu1\.gradle\caches\transforms-3\e3a733608d857c466939da27af54ba77\transformed\jetified-flipper-fresco-plugin-0.99.0\AndroidManifest.xml:8:1-15:12
MERGED from [:react-native-community_netinfo] C:\Jcodes\React Projects\eventsapp\node_modules\@react-native-community\netinfo\android\build\intermediates\merged_manifest\debug\AndroidManifest.xml:2:1-12:12
MERGED from [:react-native-gesture-handler] C:\Jcodes\React Projects\eventsapp\node_modules\react-native-gesture-handler\android\build\intermediates\merged_manifest\debug\AndroidManifest.xml:2:1-9:12
MERGED from [:react-native-safe-area-context] C:\Jcodes\React Projects\eventsapp\node_modules\react-native-safe-area-context\android\build\intermediates\merged_manifest\debug\AndroidManifest.xml:2:1-9:12
MERGED from [:react-native-webview] C:\Jcodes\React Projects\eventsapp\node_modules\react-native-webview\android\build\intermediates\merged_manifest\debug\AndroidManifest.xml:2:1-21:12
MERGED from [com.facebook.react:react-native:0.66.1] C:\Users\oagu1\.gradle\caches\transforms-3\17983b27092628c498529e8f14a21a1e\transformed\jetified-react-native-0.66.1\AndroidManifest.xml:2:1-11:12
MERGED from [androidx.swiperefreshlayout:swiperefreshlayout:1.0.0] C:\Users\oagu1\.gradle\caches\transforms-3\9341f36f0ce470d4b55127e33c2ce075\transformed\swiperefreshlayout-1.0.0\AndroidManifest.xml:17:1-22:12
MERGED from [org.webkit:android-jsc:r250230] C:\Users\oagu1\.gradle\caches\transforms-3\7873a5158addb5bf75ec8bc5226b9f2a\transformed\jetified-android-jsc-r250230\AndroidManifest.xml:2:1-11:12
MERGED from [:react-native-reanimated] C:\Jcodes\React Projects\eventsapp\node_modules\react-native-reanimated\android\build\.transforms\5b9c5cde4c8442027bee2e9ac41303a0\transformed\jetified-react-native-reanimated-66-jsc\AndroidManifest.xml:2:1-9:12
MERGED from [com.facebook.fresco:flipper:2.5.0] C:\Users\oagu1\.gradle\caches\transforms-3\5880c3ffcd9f3ffb65016eb160ab2121\transformed\jetified-flipper-2.5.0\AndroidManifest.xml:2:1-9:12
MERGED from [com.facebook.fresco:stetho:2.5.0] C:\Users\oagu1\.gradle\caches\transforms-3\247a35ea3454e43292f80ed4e869afa6\transformed\jetified-stetho-2.5.0\AndroidManifest.xml:2:1-9:12
MERGED from [com.facebook.fresco:fresco:2.5.0] C:\Users\oagu1\.gradle\caches\transforms-3\2e3be5b59ff1001e620058abe4b7c8c9\transformed\jetified-fresco-2.5.0\AndroidManifest.xml:2:1-9:12
MERGED from [com.facebook.fresco:soloader:2.5.0] C:\Users\oagu1\.gradle\caches\transforms-3\d6d259317e4a56b55ba587f613fb48a2\transformed\jetified-soloader-2.5.0\AndroidManifest.xml:2:1-9:12
MERGED from [com.facebook.fresco:imagepipeline-okhttp3:2.5.0] C:\Users\oagu1\.gradle\caches\transforms-3\6d576f05ff2510ef857a4a4bda541865\transformed\jetified-imagepipeline-okhttp3-2.5.0\AndroidManifest.xml:2:1-9:12
MERGED from [com.facebook.fresco:drawee:2.5.0] C:\Users\oagu1\.gradle\caches\transforms-3\da58426860718cf7cd9b6432bdc1e74c\transformed\jetified-drawee-2.5.0\AndroidManifest.xml:2:1-9:12
MERGED from [com.facebook.fresco:nativeimagefilters:2.5.0] C:\Users\oagu1\.gradle\caches\transforms-3\bfcd70de602582dafbe585f453d01685\transformed\jetified-nativeimagefilters-2.5.0\AndroidManifest.xml:2:1-9:12
MERGED from [com.facebook.fresco:memory-type-native:2.5.0] C:\Users\oagu1\.gradle\caches\transforms-3\29ad267efc1aa56118152dd96a23ba9e\transformed\jetified-memory-type-native-2.5.0\AndroidManifest.xml:2:1-9:12
MERGED from [com.facebook.fresco:memory-type-java:2.5.0] C:\Users\oagu1\.gradle\caches\transforms-3\cfe2fe1266f7b508fab117b793747328\transformed\jetified-memory-type-java-2.5.0\AndroidManifest.xml:2:1-9:12
MERGED from [com.facebook.fresco:imagepipeline-native:2.5.0] C:\Users\oagu1\.gradle\caches\transforms-3\78fb03b70f57e7a893ea3d79f69454fd\transformed\jetified-imagepipeline-native-2.5.0\AndroidManifest.xml:2:1-9:12
MERGED from [com.facebook.soloader:soloader:0.10.1] C:\Users\oagu1\.gradle\caches\transforms-3\4c346baed8905fc786ccf697aebc99f4\transformed\jetified-soloader-0.10.1\AndroidManifest.xml:2:1-13:12
MERGED from [com.facebook.fresco:memory-type-ashmem:2.5.0] C:\Users\oagu1\.gradle\caches\transforms-3\9429e5f71025a78d24a47489563f8c07\transformed\jetified-memory-type-ashmem-2.5.0\AndroidManifest.xml:2:1-9:12
MERGED from [com.facebook.fresco:imagepipeline:2.5.0] C:\Users\oagu1\.gradle\caches\transforms-3\5526495f296c8eeaa211326006983f13\transformed\jetified-imagepipeline-2.5.0\AndroidManifest.xml:2:1-9:12
MERGED from [com.facebook.fresco:nativeimagetranscoder:2.5.0] C:\Users\oagu1\.gradle\caches\transforms-3\9c9b14e62e6566be253296541a1de4cb\transformed\jetified-nativeimagetranscoder-2.5.0\AndroidManifest.xml:2:1-9:12
MERGED from [com.facebook.fresco:imagepipeline-base:2.5.0] C:\Users\oagu1\.gradle\caches\transforms-3\a48e403d00b0b0ddc92ec5c061189973\transformed\jetified-imagepipeline-base-2.5.0\AndroidManifest.xml:2:1-9:12
MERGED from [androidx.appcompat:appcompat:1.3.0] C:\Users\oagu1\.gradle\caches\transforms-3\69a29bf10bcc958f91385ad904e935b2\transformed\appcompat-1.3.0\AndroidManifest.xml:17:1-24:12
MERGED from [androidx.sqlite:sqlite-framework:2.1.0] C:\Users\oagu1\.gradle\caches\transforms-3\4cf80188f5b61a29833074cd7956dfba\transformed\sqlite-framework-2.1.0\AndroidManifest.xml:17:1-24:12
MERGED from [androidx.autofill:autofill:1.1.0] C:\Users\oagu1\.gradle\caches\transforms-3\be9076cd4fc3ff6ad98aa6fb277b3148\transformed\jetified-autofill-1.1.0\AndroidManifest.xml:17:1-24:12
MERGED from [com.facebook.fresco:middleware:2.5.0] C:\Users\oagu1\.gradle\caches\transforms-3\2bd3d214b93dcf428cfd42cc8814b2ed\transformed\jetified-middleware-2.5.0\AndroidManifest.xml:2:1-9:12
MERGED from [com.facebook.fresco:ui-common:2.5.0] C:\Users\oagu1\.gradle\caches\transforms-3\78eba43129e0d31bec1d131435c69dcf\transformed\jetified-ui-common-2.5.0\AndroidManifest.xml:2:1-9:12
MERGED from [androidx.appcompat:appcompat-resources:1.3.0] C:\Users\oagu1\.gradle\caches\transforms-3\262def0251b4f6c882149d15641ff92b\transformed\jetified-appcompat-resources-1.3.0\AndroidManifest.xml:17:1-24:12
MERGED from [androidx.vectordrawable:vectordrawable-animated:1.1.0] C:\Users\oagu1\.gradle\caches\transforms-3\57e3d46cd409853c916c88a2c3ae94fd\transformed\vectordrawable-animated-1.1.0\AndroidManifest.xml:17:1-24:12
MERGED from [androidx.interpolator:interpolator:1.0.0] C:\Users\oagu1\.gradle\caches\transforms-3\db0f9dfc2cb9e58d20874cad38a46146\transformed\interpolator-1.0.0\AndroidManifest.xml:17:1-22:12
MERGED from [androidx.webkit:webkit:1.4.0] C:\Users\oagu1\.gradle\caches\transforms-3\be421ef5c9cb65032068b6cd3865fbe1\transformed\webkit-1.4.0\AndroidManifest.xml:17:1-24:12
MERGED from [androidx.fragment:fragment:1.3.4] C:\Users\oagu1\.gradle\caches\transforms-3\d29e2b008fda9570dcb20a45a8889feb\transformed\fragment-1.3.4\AndroidManifest.xml:17:1-24:12
MERGED from [androidx.activity:activity:1.2.3] C:\Users\oagu1\.gradle\caches\transforms-3\2845ad8d4ac5308576a5eb6f72ea168d\transformed\jetified-activity-1.2.3\AndroidManifest.xml:17:1-24:12
MERGED from [androidx.drawerlayout:drawerlayout:1.0.0] C:\Users\oagu1\.gradle\caches\transforms-3\6fa7b39b5df705c5310dc54c9428ddb2\transformed\drawerlayout-1.0.0\AndroidManifest.xml:17:1-22:12
MERGED from [androidx.viewpager:viewpager:1.0.0] C:\Users\oagu1\.gradle\caches\transforms-3\09064782b8f9c0d066bcd2a3c8b04255\transformed\viewpager-1.0.0\AndroidManifest.xml:17:1-22:12
MERGED from [androidx.loader:loader:1.0.0] C:\Users\oagu1\.gradle\caches\transforms-3\60d60c30d7e19309c125baad97767572\transformed\loader-1.0.0\AndroidManifest.xml:17:1-22:12
MERGED from [androidx.vectordrawable:vectordrawable:1.1.0] C:\Users\oagu1\.gradle\caches\transforms-3\bd931bf16554ef3a5f9f30ddc05589c6\transformed\vectordrawable-1.1.0\AndroidManifest.xml:17:1-24:12
MERGED from [androidx.customview:customview:1.0.0] C:\Users\oagu1\.gradle\caches\transforms-3\52776be0cd260004f7c3543526e82dde\transformed\customview-1.0.0\AndroidManifest.xml:17:1-22:12
MERGED from [androidx.core:core:1.5.0] C:\Users\oagu1\.gradle\caches\transforms-3\5646db46e2cfb43e7b3d42f3054c498c\transformed\core-1.5.0\AndroidManifest.xml:17:1-26:12
MERGED from [androidx.cursoradapter:cursoradapter:1.0.0] C:\Users\oagu1\.gradle\caches\transforms-3\0be91775d24cf865decfe7ed4d5eda66\transformed\cursoradapter-1.0.0\AndroidManifest.xml:17:1-22:12
MERGED from [androidx.lifecycle:lifecycle-viewmodel-savedstate:2.3.1] C:\Users\oagu1\.gradle\caches\transforms-3\5b491d77bde65b71a6cae58aa9211dcf\transformed\jetified-lifecycle-viewmodel-savedstate-2.3.1\AndroidManifest.xml:17:1-24:12
MERGED from [androidx.savedstate:savedstate:1.1.0] C:\Users\oagu1\.gradle\caches\transforms-3\ecf84c0383f3135c8315e19df5cad97b\transformed\jetified-savedstate-1.1.0\AndroidManifest.xml:17:1-24:12
MERGED from [androidx.lifecycle:lifecycle-runtime:2.3.1] C:\Users\oagu1\.gradle\caches\transforms-3\95eef8d21bb330bbf58c8c1672988eae\transformed\lifecycle-runtime-2.3.1\AndroidManifest.xml:17:1-24:12
MERGED from [androidx.lifecycle:lifecycle-viewmodel:2.3.1] C:\Users\oagu1\.gradle\caches\transforms-3\19dbf037054f995da5dedc6be291ab0b\transformed\lifecycle-viewmodel-2.3.1\AndroidManifest.xml:17:1-24:12
MERGED from [androidx.sqlite:sqlite:2.1.0] C:\Users\oagu1\.gradle\caches\transforms-3\7a81e244e9259b8a22519a8ac58816e8\transformed\sqlite-2.1.0\AndroidManifest.xml:17:1-24:12
MERGED from [androidx.versionedparcelable:versionedparcelable:1.1.1] C:\Users\oagu1\.gradle\caches\transforms-3\233eab6c731cb1ce714d2d0256cc6f18\transformed\versionedparcelable-1.1.1\AndroidManifest.xml:17:1-27:12
MERGED from [androidx.tracing:tracing:1.0.0] C:\Users\oagu1\.gradle\caches\transforms-3\2b0f8c1393b8d656dc1b4fd4cb42a675\transformed\jetified-tracing-1.0.0\AndroidManifest.xml:17:1-24:12
MERGED from [androidx.lifecycle:lifecycle-livedata:2.0.0] C:\Users\oagu1\.gradle\caches\transforms-3\52571f97fa6c48622e09021afd8f199b\transformed\lifecycle-livedata-2.0.0\AndroidManifest.xml:17:1-22:12
MERGED from [androidx.lifecycle:lifecycle-livedata-core:2.3.1] C:\Users\oagu1\.gradle\caches\transforms-3\d17db292503a9dfb32fc2010180b8533\transformed\lifecycle-livedata-core-2.3.1\AndroidManifest.xml:17:1-24:12
MERGED from [androidx.arch.core:core-runtime:2.1.0] C:\Users\oagu1\.gradle\caches\transforms-3\f9626132104606c8a5a0763d03129850\transformed\core-runtime-2.1.0\AndroidManifest.xml:17:1-24:12
MERGED from [com.facebook.fresco:fbcore:2.5.0] C:\Users\oagu1\.gradle\caches\transforms-3\80cae4052e041bdf30fb0fa272e54409\transformed\jetified-fbcore-2.5.0\AndroidManifest.xml:2:1-9:12
MERGED from [androidx.annotation:annotation-experimental:1.0.0] C:\Users\oagu1\.gradle\caches\transforms-3\65083a7e9fb6753ce1340588a4e7a976\transformed\jetified-annotation-experimental-1.0.0\AndroidManifest.xml:17:1-24:12
INJECTED from C:\Jcodes\React Projects\eventsapp\android\app\src\debug\AndroidManifest.xml:2:1-13:12
INJECTED from C:\Jcodes\React Projects\eventsapp\android\app\src\debug\AndroidManifest.xml:2:1-13:12
INJECTED from C:\Jcodes\React Projects\eventsapp\android\app\src\debug\AndroidManifest.xml:2:1-13:12
	package
		ADDED from C:\Jcodes\React Projects\eventsapp\android\app\src\main\AndroidManifest.xml:2:3-26
		INJECTED from C:\Jcodes\React Projects\eventsapp\android\app\src\main\AndroidManifest.xml
		ADDED from C:\Jcodes\React Projects\eventsapp\android\app\src\main\AndroidManifest.xml:2:3-26
		INJECTED from C:\Jcodes\React Projects\eventsapp\android\app\src\debug\AndroidManifest.xml
	android:versionName
		INJECTED from C:\Jcodes\React Projects\eventsapp\android\app\src\main\AndroidManifest.xml
		ADDED from C:\Jcodes\React Projects\eventsapp\android\app\src\main\AndroidManifest.xml:1:1-25:12
		INJECTED from C:\Jcodes\React Projects\eventsapp\android\app\src\debug\AndroidManifest.xml
	xmlns:tools
		ADDED from C:\Jcodes\React Projects\eventsapp\android\app\src\debug\AndroidManifest.xml:3:5-51
	android:versionCode
		INJECTED from C:\Jcodes\React Projects\eventsapp\android\app\src\main\AndroidManifest.xml
		ADDED from C:\Jcodes\React Projects\eventsapp\android\app\src\main\AndroidManifest.xml:1:1-25:12
		INJECTED from C:\Jcodes\React Projects\eventsapp\android\app\src\debug\AndroidManifest.xml
	xmlns:android
		ADDED from C:\Jcodes\React Projects\eventsapp\android\app\src\main\AndroidManifest.xml:1:11-69
uses-permission#android.permission.INTERNET
ADDED from C:\Jcodes\React Projects\eventsapp\android\app\src\main\AndroidManifest.xml:4:5-67
MERGED from [com.facebook.flipper:flipper:0.99.0] C:\Users\oagu1\.gradle\caches\transforms-3\2f5725507f1929c6ddf8255f0bef77bd\transformed\jetified-flipper-0.99.0\AndroidManifest.xml:15:5-67
MERGED from [com.facebook.flipper:flipper:0.99.0] C:\Users\oagu1\.gradle\caches\transforms-3\2f5725507f1929c6ddf8255f0bef77bd\transformed\jetified-flipper-0.99.0\AndroidManifest.xml:15:5-67
	android:name
		ADDED from C:\Jcodes\React Projects\eventsapp\android\app\src\main\AndroidManifest.xml:4:22-64
uses-permission#android.permission.ACCESS_NETWORK_STATE
ADDED from C:\Jcodes\React Projects\eventsapp\android\app\src\main\AndroidManifest.xml:5:5-78
MERGED from [:react-native-community_netinfo] C:\Jcodes\React Projects\eventsapp\node_modules\@react-native-community\netinfo\android\build\intermediates\merged_manifest\debug\AndroidManifest.xml:9:5-79
MERGED from [:react-native-community_netinfo] C:\Jcodes\React Projects\eventsapp\node_modules\@react-native-community\netinfo\android\build\intermediates\merged_manifest\debug\AndroidManifest.xml:9:5-79
	android:name
		ADDED from C:\Jcodes\React Projects\eventsapp\android\app\src\main\AndroidManifest.xml:5:22-76
application
ADDED from C:\Jcodes\React Projects\eventsapp\android\app\src\main\AndroidManifest.xml:6:5-24:19
MERGED from C:\Jcodes\React Projects\eventsapp\android\app\src\main\AndroidManifest.xml:6:5-24:19
MERGED from C:\Jcodes\React Projects\eventsapp\android\app\src\main\AndroidManifest.xml:6:5-24:19
MERGED from [:react-native-webview] C:\Jcodes\React Projects\eventsapp\node_modules\react-native-webview\android\build\intermediates\merged_manifest\debug\AndroidManifest.xml:9:5-19:19
MERGED from [:react-native-webview] C:\Jcodes\React Projects\eventsapp\node_modules\react-native-webview\android\build\intermediates\merged_manifest\debug\AndroidManifest.xml:9:5-19:19
MERGED from [com.facebook.react:react-native:0.66.1] C:\Users\oagu1\.gradle\caches\transforms-3\17983b27092628c498529e8f14a21a1e\transformed\jetified-react-native-0.66.1\AndroidManifest.xml:9:5-20
MERGED from [com.facebook.react:react-native:0.66.1] C:\Users\oagu1\.gradle\caches\transforms-3\17983b27092628c498529e8f14a21a1e\transformed\jetified-react-native-0.66.1\AndroidManifest.xml:9:5-20
MERGED from [com.facebook.soloader:soloader:0.10.1] C:\Users\oagu1\.gradle\caches\transforms-3\4c346baed8905fc786ccf697aebc99f4\transformed\jetified-soloader-0.10.1\AndroidManifest.xml:11:5-20
MERGED from [com.facebook.soloader:soloader:0.10.1] C:\Users\oagu1\.gradle\caches\transforms-3\4c346baed8905fc786ccf697aebc99f4\transformed\jetified-soloader-0.10.1\AndroidManifest.xml:11:5-20
MERGED from [androidx.core:core:1.5.0] C:\Users\oagu1\.gradle\caches\transforms-3\5646db46e2cfb43e7b3d42f3054c498c\transformed\core-1.5.0\AndroidManifest.xml:24:5-89
MERGED from [androidx.core:core:1.5.0] C:\Users\oagu1\.gradle\caches\transforms-3\5646db46e2cfb43e7b3d42f3054c498c\transformed\core-1.5.0\AndroidManifest.xml:24:5-89
MERGED from [androidx.versionedparcelable:versionedparcelable:1.1.1] C:\Users\oagu1\.gradle\caches\transforms-3\233eab6c731cb1ce714d2d0256cc6f18\transformed\versionedparcelable-1.1.1\AndroidManifest.xml:24:5-25:19
MERGED from [androidx.versionedparcelable:versionedparcelable:1.1.1] C:\Users\oagu1\.gradle\caches\transforms-3\233eab6c731cb1ce714d2d0256cc6f18\transformed\versionedparcelable-1.1.1\AndroidManifest.xml:24:5-25:19
	android:appComponentFactory
		ADDED from [androidx.core:core:1.5.0] C:\Users\oagu1\.gradle\caches\transforms-3\5646db46e2cfb43e7b3d42f3054c498c\transformed\core-1.5.0\AndroidManifest.xml:24:18-86
	android:label
		ADDED from C:\Jcodes\React Projects\eventsapp\android\app\src\main\AndroidManifest.xml:8:7-39
		ADDED from C:\Jcodes\React Projects\eventsapp\android\app\src\main\AndroidManifest.xml:8:7-39
	tools:ignore
		ADDED from C:\Jcodes\React Projects\eventsapp\android\app\src\debug\AndroidManifest.xml:10:9-48
	android:roundIcon
		ADDED from C:\Jcodes\React Projects\eventsapp\android\app\src\main\AndroidManifest.xml:10:7-52
		ADDED from C:\Jcodes\React Projects\eventsapp\android\app\src\main\AndroidManifest.xml:10:7-52
	tools:targetApi
		ADDED from C:\Jcodes\React Projects\eventsapp\android\app\src\debug\AndroidManifest.xml:9:9-29
	android:icon
		ADDED from C:\Jcodes\React Projects\eventsapp\android\app\src\main\AndroidManifest.xml:9:7-41
		ADDED from C:\Jcodes\React Projects\eventsapp\android\app\src\main\AndroidManifest.xml:9:7-41
	android:allowBackup
		ADDED from C:\Jcodes\React Projects\eventsapp\android\app\src\main\AndroidManifest.xml:11:7-34
		ADDED from C:\Jcodes\React Projects\eventsapp\android\app\src\main\AndroidManifest.xml:11:7-34
	android:theme
		ADDED from C:\Jcodes\React Projects\eventsapp\android\app\src\main\AndroidManifest.xml:12:7-38
		ADDED from C:\Jcodes\React Projects\eventsapp\android\app\src\main\AndroidManifest.xml:12:7-38
	android:usesCleartextTraffic
		ADDED from C:\Jcodes\React Projects\eventsapp\android\app\src\debug\AndroidManifest.xml:8:9-44
	android:name
		ADDED from C:\Jcodes\React Projects\eventsapp\android\app\src\main\AndroidManifest.xml:7:7-38
		ADDED from C:\Jcodes\React Projects\eventsapp\android\app\src\main\AndroidManifest.xml:7:7-38
activity#com.eventsapp.MainActivity
ADDED from C:\Jcodes\React Projects\eventsapp\android\app\src\main\AndroidManifest.xml:13:7-23:18
	android:label
		ADDED from C:\Jcodes\React Projects\eventsapp\android\app\src\main\AndroidManifest.xml:15:9-41
	android:launchMode
		ADDED from C:\Jcodes\React Projects\eventsapp\android\app\src\main\AndroidManifest.xml:17:9-40
	android:windowSoftInputMode
		ADDED from C:\Jcodes\React Projects\eventsapp\android\app\src\main\AndroidManifest.xml:18:9-51
	android:configChanges
		ADDED from C:\Jcodes\React Projects\eventsapp\android\app\src\main\AndroidManifest.xml:16:9-86
	android:name
		ADDED from C:\Jcodes\React Projects\eventsapp\android\app\src\main\AndroidManifest.xml:14:9-37
intent-filter#action:name:android.intent.action.MAIN+category:name:android.intent.category.LAUNCHER
ADDED from C:\Jcodes\React Projects\eventsapp\android\app\src\main\AndroidManifest.xml:19:9-22:25
action#android.intent.action.MAIN
ADDED from C:\Jcodes\React Projects\eventsapp\android\app\src\main\AndroidManifest.xml:20:13-65
	android:name
		ADDED from C:\Jcodes\React Projects\eventsapp\android\app\src\main\AndroidManifest.xml:20:21-62
category#android.intent.category.LAUNCHER
ADDED from C:\Jcodes\React Projects\eventsapp\android\app\src\main\AndroidManifest.xml:21:13-73
	android:name
		ADDED from C:\Jcodes\React Projects\eventsapp\android\app\src\main\AndroidManifest.xml:21:23-70
uses-sdk
INJECTED from C:\Jcodes\React Projects\eventsapp\android\app\src\main\AndroidManifest.xml reason: use-sdk injection requested
INJECTED from C:\Jcodes\React Projects\eventsapp\android\app\src\main\AndroidManifest.xml
INJECTED from C:\Jcodes\React Projects\eventsapp\android\app\src\main\AndroidManifest.xml
MERGED from [com.facebook.flipper:flipper:0.99.0] C:\Users\oagu1\.gradle\caches\transforms-3\2f5725507f1929c6ddf8255f0bef77bd\transformed\jetified-flipper-0.99.0\AndroidManifest.xml:11:5-13:41
MERGED from [com.facebook.flipper:flipper:0.99.0] C:\Users\oagu1\.gradle\caches\transforms-3\2f5725507f1929c6ddf8255f0bef77bd\transformed\jetified-flipper-0.99.0\AndroidManifest.xml:11:5-13:41
MERGED from [com.facebook.flipper:flipper-network-plugin:0.99.0] C:\Users\oagu1\.gradle\caches\transforms-3\2c29b736c8f2a9d82fade7115b471d70\transformed\jetified-flipper-network-plugin-0.99.0\AndroidManifest.xml:11:5-13:41
MERGED from [com.facebook.flipper:flipper-network-plugin:0.99.0] C:\Users\oagu1\.gradle\caches\transforms-3\2c29b736c8f2a9d82fade7115b471d70\transformed\jetified-flipper-network-plugin-0.99.0\AndroidManifest.xml:11:5-13:41
MERGED from [com.facebook.flipper:flipper-fresco-plugin:0.99.0] C:\Users\oagu1\.gradle\caches\transforms-3\e3a733608d857c466939da27af54ba77\transformed\jetified-flipper-fresco-plugin-0.99.0\AndroidManifest.xml:11:5-13:41
MERGED from [com.facebook.flipper:flipper-fresco-plugin:0.99.0] C:\Users\oagu1\.gradle\caches\transforms-3\e3a733608d857c466939da27af54ba77\transformed\jetified-flipper-fresco-plugin-0.99.0\AndroidManifest.xml:11:5-13:41
MERGED from [:react-native-community_netinfo] C:\Jcodes\React Projects\eventsapp\node_modules\@react-native-community\netinfo\android\build\intermediates\merged_manifest\debug\AndroidManifest.xml:5:5-7:41
MERGED from [:react-native-community_netinfo] C:\Jcodes\React Projects\eventsapp\node_modules\@react-native-community\netinfo\android\build\intermediates\merged_manifest\debug\AndroidManifest.xml:5:5-7:41
MERGED from [:react-native-gesture-handler] C:\Jcodes\React Projects\eventsapp\node_modules\react-native-gesture-handler\android\build\intermediates\merged_manifest\debug\AndroidManifest.xml:5:5-7:41
MERGED from [:react-native-gesture-handler] C:\Jcodes\React Projects\eventsapp\node_modules\react-native-gesture-handler\android\build\intermediates\merged_manifest\debug\AndroidManifest.xml:5:5-7:41
MERGED from [:react-native-safe-area-context] C:\Jcodes\React Projects\eventsapp\node_modules\react-native-safe-area-context\android\build\intermediates\merged_manifest\debug\AndroidManifest.xml:5:5-7:41
MERGED from [:react-native-safe-area-context] C:\Jcodes\React Projects\eventsapp\node_modules\react-native-safe-area-context\android\build\intermediates\merged_manifest\debug\AndroidManifest.xml:5:5-7:41
MERGED from [:react-native-webview] C:\Jcodes\React Projects\eventsapp\node_modules\react-native-webview\android\build\intermediates\merged_manifest\debug\AndroidManifest.xml:5:5-7:41
MERGED from [:react-native-webview] C:\Jcodes\React Projects\eventsapp\node_modules\react-native-webview\android\build\intermediates\merged_manifest\debug\AndroidManifest.xml:5:5-7:41
MERGED from [com.facebook.react:react-native:0.66.1] C:\Users\oagu1\.gradle\caches\transforms-3\17983b27092628c498529e8f14a21a1e\transformed\jetified-react-native-0.66.1\AndroidManifest.xml:5:5-7:41
MERGED from [com.facebook.react:react-native:0.66.1] C:\Users\oagu1\.gradle\caches\transforms-3\17983b27092628c498529e8f14a21a1e\transformed\jetified-react-native-0.66.1\AndroidManifest.xml:5:5-7:41
MERGED from [androidx.swiperefreshlayout:swiperefreshlayout:1.0.0] C:\Users\oagu1\.gradle\caches\transforms-3\9341f36f0ce470d4b55127e33c2ce075\transformed\swiperefreshlayout-1.0.0\AndroidManifest.xml:20:5-44
MERGED from [androidx.swiperefreshlayout:swiperefreshlayout:1.0.0] C:\Users\oagu1\.gradle\caches\transforms-3\9341f36f0ce470d4b55127e33c2ce075\transformed\swiperefreshlayout-1.0.0\AndroidManifest.xml:20:5-44
MERGED from [org.webkit:android-jsc:r250230] C:\Users\oagu1\.gradle\caches\transforms-3\7873a5158addb5bf75ec8bc5226b9f2a\transformed\jetified-android-jsc-r250230\AndroidManifest.xml:7:5-9:41
MERGED from [org.webkit:android-jsc:r250230] C:\Users\oagu1\.gradle\caches\transforms-3\7873a5158addb5bf75ec8bc5226b9f2a\transformed\jetified-android-jsc-r250230\AndroidManifest.xml:7:5-9:41
MERGED from [:react-native-reanimated] C:\Jcodes\React Projects\eventsapp\node_modules\react-native-reanimated\android\build\.transforms\5b9c5cde4c8442027bee2e9ac41303a0\transformed\jetified-react-native-reanimated-66-jsc\AndroidManifest.xml:5:5-7:41
MERGED from [:react-native-reanimated] C:\Jcodes\React Projects\eventsapp\node_modules\react-native-reanimated\android\build\.transforms\5b9c5cde4c8442027bee2e9ac41303a0\transformed\jetified-react-native-reanimated-66-jsc\AndroidManifest.xml:5:5-7:41
MERGED from [com.facebook.fresco:flipper:2.5.0] C:\Users\oagu1\.gradle\caches\transforms-3\5880c3ffcd9f3ffb65016eb160ab2121\transformed\jetified-flipper-2.5.0\AndroidManifest.xml:5:5-7:41
MERGED from [com.facebook.fresco:flipper:2.5.0] C:\Users\oagu1\.gradle\caches\transforms-3\5880c3ffcd9f3ffb65016eb160ab2121\transformed\jetified-flipper-2.5.0\AndroidManifest.xml:5:5-7:41
MERGED from [com.facebook.fresco:stetho:2.5.0] C:\Users\oagu1\.gradle\caches\transforms-3\247a35ea3454e43292f80ed4e869afa6\transformed\jetified-stetho-2.5.0\AndroidManifest.xml:5:5-7:41
MERGED from [com.facebook.fresco:stetho:2.5.0] C:\Users\oagu1\.gradle\caches\transforms-3\247a35ea3454e43292f80ed4e869afa6\transformed\jetified-stetho-2.5.0\AndroidManifest.xml:5:5-7:41
MERGED from [com.facebook.fresco:fresco:2.5.0] C:\Users\oagu1\.gradle\caches\transforms-3\2e3be5b59ff1001e620058abe4b7c8c9\transformed\jetified-fresco-2.5.0\AndroidManifest.xml:5:5-7:41
MERGED from [com.facebook.fresco:fresco:2.5.0] C:\Users\oagu1\.gradle\caches\transforms-3\2e3be5b59ff1001e620058abe4b7c8c9\transformed\jetified-fresco-2.5.0\AndroidManifest.xml:5:5-7:41
MERGED from [com.facebook.fresco:soloader:2.5.0] C:\Users\oagu1\.gradle\caches\transforms-3\d6d259317e4a56b55ba587f613fb48a2\transformed\jetified-soloader-2.5.0\AndroidManifest.xml:5:5-7:41
MERGED from [com.facebook.fresco:soloader:2.5.0] C:\Users\oagu1\.gradle\caches\transforms-3\d6d259317e4a56b55ba587f613fb48a2\transformed\jetified-soloader-2.5.0\AndroidManifest.xml:5:5-7:41
MERGED from [com.facebook.fresco:imagepipeline-okhttp3:2.5.0] C:\Users\oagu1\.gradle\caches\transforms-3\6d576f05ff2510ef857a4a4bda541865\transformed\jetified-imagepipeline-okhttp3-2.5.0\AndroidManifest.xml:5:5-7:41
MERGED from [com.facebook.fresco:imagepipeline-okhttp3:2.5.0] C:\Users\oagu1\.gradle\caches\transforms-3\6d576f05ff2510ef857a4a4bda541865\transformed\jetified-imagepipeline-okhttp3-2.5.0\AndroidManifest.xml:5:5-7:41
MERGED from [com.facebook.fresco:drawee:2.5.0] C:\Users\oagu1\.gradle\caches\transforms-3\da58426860718cf7cd9b6432bdc1e74c\transformed\jetified-drawee-2.5.0\AndroidManifest.xml:5:5-7:41
MERGED from [com.facebook.fresco:drawee:2.5.0] C:\Users\oagu1\.gradle\caches\transforms-3\da58426860718cf7cd9b6432bdc1e74c\transformed\jetified-drawee-2.5.0\AndroidManifest.xml:5:5-7:41
MERGED from [com.facebook.fresco:nativeimagefilters:2.5.0] C:\Users\oagu1\.gradle\caches\transforms-3\bfcd70de602582dafbe585f453d01685\transformed\jetified-nativeimagefilters-2.5.0\AndroidManifest.xml:5:5-7:41
MERGED from [com.facebook.fresco:nativeimagefilters:2.5.0] C:\Users\oagu1\.gradle\caches\transforms-3\bfcd70de602582dafbe585f453d01685\transformed\jetified-nativeimagefilters-2.5.0\AndroidManifest.xml:5:5-7:41
MERGED from [com.facebook.fresco:memory-type-native:2.5.0] C:\Users\oagu1\.gradle\caches\transforms-3\29ad267efc1aa56118152dd96a23ba9e\transformed\jetified-memory-type-native-2.5.0\AndroidManifest.xml:5:5-7:41
MERGED from [com.facebook.fresco:memory-type-native:2.5.0] C:\Users\oagu1\.gradle\caches\transforms-3\29ad267efc1aa56118152dd96a23ba9e\transformed\jetified-memory-type-native-2.5.0\AndroidManifest.xml:5:5-7:41
MERGED from [com.facebook.fresco:memory-type-java:2.5.0] C:\Users\oagu1\.gradle\caches\transforms-3\cfe2fe1266f7b508fab117b793747328\transformed\jetified-memory-type-java-2.5.0\AndroidManifest.xml:5:5-7:41
MERGED from [com.facebook.fresco:memory-type-java:2.5.0] C:\Users\oagu1\.gradle\caches\transforms-3\cfe2fe1266f7b508fab117b793747328\transformed\jetified-memory-type-java-2.5.0\AndroidManifest.xml:5:5-7:41
MERGED from [com.facebook.fresco:imagepipeline-native:2.5.0] C:\Users\oagu1\.gradle\caches\transforms-3\78fb03b70f57e7a893ea3d79f69454fd\transformed\jetified-imagepipeline-native-2.5.0\AndroidManifest.xml:5:5-7:41
MERGED from [com.facebook.fresco:imagepipeline-native:2.5.0] C:\Users\oagu1\.gradle\caches\transforms-3\78fb03b70f57e7a893ea3d79f69454fd\transformed\jetified-imagepipeline-native-2.5.0\AndroidManifest.xml:5:5-7:41
MERGED from [com.facebook.soloader:soloader:0.10.1] C:\Users\oagu1\.gradle\caches\transforms-3\4c346baed8905fc786ccf697aebc99f4\transformed\jetified-soloader-0.10.1\AndroidManifest.xml:7:5-9:41
MERGED from [com.facebook.soloader:soloader:0.10.1] C:\Users\oagu1\.gradle\caches\transforms-3\4c346baed8905fc786ccf697aebc99f4\transformed\jetified-soloader-0.10.1\AndroidManifest.xml:7:5-9:41
MERGED from [com.facebook.fresco:memory-type-ashmem:2.5.0] C:\Users\oagu1\.gradle\caches\transforms-3\9429e5f71025a78d24a47489563f8c07\transformed\jetified-memory-type-ashmem-2.5.0\AndroidManifest.xml:5:5-7:41
MERGED from [com.facebook.fresco:memory-type-ashmem:2.5.0] C:\Users\oagu1\.gradle\caches\transforms-3\9429e5f71025a78d24a47489563f8c07\transformed\jetified-memory-type-ashmem-2.5.0\AndroidManifest.xml:5:5-7:41
MERGED from [com.facebook.fresco:imagepipeline:2.5.0] C:\Users\oagu1\.gradle\caches\transforms-3\5526495f296c8eeaa211326006983f13\transformed\jetified-imagepipeline-2.5.0\AndroidManifest.xml:5:5-7:41
MERGED from [com.facebook.fresco:imagepipeline:2.5.0] C:\Users\oagu1\.gradle\caches\transforms-3\5526495f296c8eeaa211326006983f13\transformed\jetified-imagepipeline-2.5.0\AndroidManifest.xml:5:5-7:41
MERGED from [com.facebook.fresco:nativeimagetranscoder:2.5.0] C:\Users\oagu1\.gradle\caches\transforms-3\9c9b14e62e6566be253296541a1de4cb\transformed\jetified-nativeimagetranscoder-2.5.0\AndroidManifest.xml:5:5-7:41
MERGED from [com.facebook.fresco:nativeimagetranscoder:2.5.0] C:\Users\oagu1\.gradle\caches\transforms-3\9c9b14e62e6566be253296541a1de4cb\transformed\jetified-nativeimagetranscoder-2.5.0\AndroidManifest.xml:5:5-7:41
MERGED from [com.facebook.fresco:imagepipeline-base:2.5.0] C:\Users\oagu1\.gradle\caches\transforms-3\a48e403d00b0b0ddc92ec5c061189973\transformed\jetified-imagepipeline-base-2.5.0\AndroidManifest.xml:5:5-7:41
MERGED from [com.facebook.fresco:imagepipeline-base:2.5.0] C:\Users\oagu1\.gradle\caches\transforms-3\a48e403d00b0b0ddc92ec5c061189973\transformed\jetified-imagepipeline-base-2.5.0\AndroidManifest.xml:5:5-7:41
MERGED from [androidx.appcompat:appcompat:1.3.0] C:\Users\oagu1\.gradle\caches\transforms-3\69a29bf10bcc958f91385ad904e935b2\transformed\appcompat-1.3.0\AndroidManifest.xml:20:5-22:41
MERGED from [androidx.appcompat:appcompat:1.3.0] C:\Users\oagu1\.gradle\caches\transforms-3\69a29bf10bcc958f91385ad904e935b2\transformed\appcompat-1.3.0\AndroidManifest.xml:20:5-22:41
MERGED from [androidx.sqlite:sqlite-framework:2.1.0] C:\Users\oagu1\.gradle\caches\transforms-3\4cf80188f5b61a29833074cd7956dfba\transformed\sqlite-framework-2.1.0\AndroidManifest.xml:20:5-22:41
MERGED from [androidx.sqlite:sqlite-framework:2.1.0] C:\Users\oagu1\.gradle\caches\transforms-3\4cf80188f5b61a29833074cd7956dfba\transformed\sqlite-framework-2.1.0\AndroidManifest.xml:20:5-22:41
MERGED from [androidx.autofill:autofill:1.1.0] C:\Users\oagu1\.gradle\caches\transforms-3\be9076cd4fc3ff6ad98aa6fb277b3148\transformed\jetified-autofill-1.1.0\AndroidManifest.xml:20:5-22:41
MERGED from [androidx.autofill:autofill:1.1.0] C:\Users\oagu1\.gradle\caches\transforms-3\be9076cd4fc3ff6ad98aa6fb277b3148\transformed\jetified-autofill-1.1.0\AndroidManifest.xml:20:5-22:41
MERGED from [com.facebook.fresco:middleware:2.5.0] C:\Users\oagu1\.gradle\caches\transforms-3\2bd3d214b93dcf428cfd42cc8814b2ed\transformed\jetified-middleware-2.5.0\AndroidManifest.xml:5:5-7:41
MERGED from [com.facebook.fresco:middleware:2.5.0] C:\Users\oagu1\.gradle\caches\transforms-3\2bd3d214b93dcf428cfd42cc8814b2ed\transformed\jetified-middleware-2.5.0\AndroidManifest.xml:5:5-7:41
MERGED from [com.facebook.fresco:ui-common:2.5.0] C:\Users\oagu1\.gradle\caches\transforms-3\78eba43129e0d31bec1d131435c69dcf\transformed\jetified-ui-common-2.5.0\AndroidManifest.xml:5:5-7:41
MERGED from [com.facebook.fresco:ui-common:2.5.0] C:\Users\oagu1\.gradle\caches\transforms-3\78eba43129e0d31bec1d131435c69dcf\transformed\jetified-ui-common-2.5.0\AndroidManifest.xml:5:5-7:41
MERGED from [androidx.appcompat:appcompat-resources:1.3.0] C:\Users\oagu1\.gradle\caches\transforms-3\262def0251b4f6c882149d15641ff92b\transformed\jetified-appcompat-resources-1.3.0\AndroidManifest.xml:20:5-22:41
MERGED from [androidx.appcompat:appcompat-resources:1.3.0] C:\Users\oagu1\.gradle\caches\transforms-3\262def0251b4f6c882149d15641ff92b\transformed\jetified-appcompat-resources-1.3.0\AndroidManifest.xml:20:5-22:41
MERGED from [androidx.vectordrawable:vectordrawable-animated:1.1.0] C:\Users\oagu1\.gradle\caches\transforms-3\57e3d46cd409853c916c88a2c3ae94fd\transformed\vectordrawable-animated-1.1.0\AndroidManifest.xml:20:5-22:41
MERGED from [androidx.vectordrawable:vectordrawable-animated:1.1.0] C:\Users\oagu1\.gradle\caches\transforms-3\57e3d46cd409853c916c88a2c3ae94fd\transformed\vectordrawable-animated-1.1.0\AndroidManifest.xml:20:5-22:41
MERGED from [androidx.interpolator:interpolator:1.0.0] C:\Users\oagu1\.gradle\caches\transforms-3\db0f9dfc2cb9e58d20874cad38a46146\transformed\interpolator-1.0.0\AndroidManifest.xml:20:5-44
MERGED from [androidx.interpolator:interpolator:1.0.0] C:\Users\oagu1\.gradle\caches\transforms-3\db0f9dfc2cb9e58d20874cad38a46146\transformed\interpolator-1.0.0\AndroidManifest.xml:20:5-44
MERGED from [androidx.webkit:webkit:1.4.0] C:\Users\oagu1\.gradle\caches\transforms-3\be421ef5c9cb65032068b6cd3865fbe1\transformed\webkit-1.4.0\AndroidManifest.xml:20:5-22:41
MERGED from [androidx.webkit:webkit:1.4.0] C:\Users\oagu1\.gradle\caches\transforms-3\be421ef5c9cb65032068b6cd3865fbe1\transformed\webkit-1.4.0\AndroidManifest.xml:20:5-22:41
MERGED from [androidx.fragment:fragment:1.3.4] C:\Users\oagu1\.gradle\caches\transforms-3\d29e2b008fda9570dcb20a45a8889feb\transformed\fragment-1.3.4\AndroidManifest.xml:20:5-22:41
MERGED from [androidx.fragment:fragment:1.3.4] C:\Users\oagu1\.gradle\caches\transforms-3\d29e2b008fda9570dcb20a45a8889feb\transformed\fragment-1.3.4\AndroidManifest.xml:20:5-22:41
MERGED from [androidx.activity:activity:1.2.3] C:\Users\oagu1\.gradle\caches\transforms-3\2845ad8d4ac5308576a5eb6f72ea168d\transformed\jetified-activity-1.2.3\AndroidManifest.xml:20:5-22:41
MERGED from [androidx.activity:activity:1.2.3] C:\Users\oagu1\.gradle\caches\transforms-3\2845ad8d4ac5308576a5eb6f72ea168d\transformed\jetified-activity-1.2.3\AndroidManifest.xml:20:5-22:41
MERGED from [androidx.drawerlayout:drawerlayout:1.0.0] C:\Users\oagu1\.gradle\caches\transforms-3\6fa7b39b5df705c5310dc54c9428ddb2\transformed\drawerlayout-1.0.0\AndroidManifest.xml:20:5-44
MERGED from [androidx.drawerlayout:drawerlayout:1.0.0] C:\Users\oagu1\.gradle\caches\transforms-3\6fa7b39b5df705c5310dc54c9428ddb2\transformed\drawerlayout-1.0.0\AndroidManifest.xml:20:5-44
MERGED from [androidx.viewpager:viewpager:1.0.0] C:\Users\oagu1\.gradle\caches\transforms-3\09064782b8f9c0d066bcd2a3c8b04255\transformed\viewpager-1.0.0\AndroidManifest.xml:20:5-44
MERGED from [androidx.viewpager:viewpager:1.0.0] C:\Users\oagu1\.gradle\caches\transforms-3\09064782b8f9c0d066bcd2a3c8b04255\transformed\viewpager-1.0.0\AndroidManifest.xml:20:5-44
MERGED from [androidx.loader:loader:1.0.0] C:\Users\oagu1\.gradle\caches\transforms-3\60d60c30d7e19309c125baad97767572\transformed\loader-1.0.0\AndroidManifest.xml:20:5-44
MERGED from [androidx.loader:loader:1.0.0] C:\Users\oagu1\.gradle\caches\transforms-3\60d60c30d7e19309c125baad97767572\transformed\loader-1.0.0\AndroidManifest.xml:20:5-44
MERGED from [androidx.vectordrawable:vectordrawable:1.1.0] C:\Users\oagu1\.gradle\caches\transforms-3\bd931bf16554ef3a5f9f30ddc05589c6\transformed\vectordrawable-1.1.0\AndroidManifest.xml:20:5-22:41
MERGED from [androidx.vectordrawable:vectordrawable:1.1.0] C:\Users\oagu1\.gradle\caches\transforms-3\bd931bf16554ef3a5f9f30ddc05589c6\transformed\vectordrawable-1.1.0\AndroidManifest.xml:20:5-22:41
MERGED from [androidx.customview:customview:1.0.0] C:\Users\oagu1\.gradle\caches\transforms-3\52776be0cd260004f7c3543526e82dde\transformed\customview-1.0.0\AndroidManifest.xml:20:5-44
MERGED from [androidx.customview:customview:1.0.0] C:\Users\oagu1\.gradle\caches\transforms-3\52776be0cd260004f7c3543526e82dde\transformed\customview-1.0.0\AndroidManifest.xml:20:5-44
MERGED from [androidx.core:core:1.5.0] C:\Users\oagu1\.gradle\caches\transforms-3\5646db46e2cfb43e7b3d42f3054c498c\transformed\core-1.5.0\AndroidManifest.xml:20:5-22:41
MERGED from [androidx.core:core:1.5.0] C:\Users\oagu1\.gradle\caches\transforms-3\5646db46e2cfb43e7b3d42f3054c498c\transformed\core-1.5.0\AndroidManifest.xml:20:5-22:41
MERGED from [androidx.cursoradapter:cursoradapter:1.0.0] C:\Users\oagu1\.gradle\caches\transforms-3\0be91775d24cf865decfe7ed4d5eda66\transformed\cursoradapter-1.0.0\AndroidManifest.xml:20:5-44
MERGED from [androidx.cursoradapter:cursoradapter:1.0.0] C:\Users\oagu1\.gradle\caches\transforms-3\0be91775d24cf865decfe7ed4d5eda66\transformed\cursoradapter-1.0.0\AndroidManifest.xml:20:5-44
MERGED from [androidx.lifecycle:lifecycle-viewmodel-savedstate:2.3.1] C:\Users\oagu1\.gradle\caches\transforms-3\5b491d77bde65b71a6cae58aa9211dcf\transformed\jetified-lifecycle-viewmodel-savedstate-2.3.1\AndroidManifest.xml:20:5-22:41
MERGED from [androidx.lifecycle:lifecycle-viewmodel-savedstate:2.3.1] C:\Users\oagu1\.gradle\caches\transforms-3\5b491d77bde65b71a6cae58aa9211dcf\transformed\jetified-lifecycle-viewmodel-savedstate-2.3.1\AndroidManifest.xml:20:5-22:41
MERGED from [androidx.savedstate:savedstate:1.1.0] C:\Users\oagu1\.gradle\caches\transforms-3\ecf84c0383f3135c8315e19df5cad97b\transformed\jetified-savedstate-1.1.0\AndroidManifest.xml:20:5-22:41
MERGED from [androidx.savedstate:savedstate:1.1.0] C:\Users\oagu1\.gradle\caches\transforms-3\ecf84c0383f3135c8315e19df5cad97b\transformed\jetified-savedstate-1.1.0\AndroidManifest.xml:20:5-22:41
MERGED from [androidx.lifecycle:lifecycle-runtime:2.3.1] C:\Users\oagu1\.gradle\caches\transforms-3\95eef8d21bb330bbf58c8c1672988eae\transformed\lifecycle-runtime-2.3.1\AndroidManifest.xml:20:5-22:41
MERGED from [androidx.lifecycle:lifecycle-runtime:2.3.1] C:\Users\oagu1\.gradle\caches\transforms-3\95eef8d21bb330bbf58c8c1672988eae\transformed\lifecycle-runtime-2.3.1\AndroidManifest.xml:20:5-22:41
MERGED from [androidx.lifecycle:lifecycle-viewmodel:2.3.1] C:\Users\oagu1\.gradle\caches\transforms-3\19dbf037054f995da5dedc6be291ab0b\transformed\lifecycle-viewmodel-2.3.1\AndroidManifest.xml:20:5-22:41
MERGED from [androidx.lifecycle:lifecycle-viewmodel:2.3.1] C:\Users\oagu1\.gradle\caches\transforms-3\19dbf037054f995da5dedc6be291ab0b\transformed\lifecycle-viewmodel-2.3.1\AndroidManifest.xml:20:5-22:41
MERGED from [androidx.sqlite:sqlite:2.1.0] C:\Users\oagu1\.gradle\caches\transforms-3\7a81e244e9259b8a22519a8ac58816e8\transformed\sqlite-2.1.0\AndroidManifest.xml:20:5-22:41
MERGED from [androidx.sqlite:sqlite:2.1.0] C:\Users\oagu1\.gradle\caches\transforms-3\7a81e244e9259b8a22519a8ac58816e8\transformed\sqlite-2.1.0\AndroidManifest.xml:20:5-22:41
MERGED from [androidx.versionedparcelable:versionedparcelable:1.1.1] C:\Users\oagu1\.gradle\caches\transforms-3\233eab6c731cb1ce714d2d0256cc6f18\transformed\versionedparcelable-1.1.1\AndroidManifest.xml:20:5-22:41
MERGED from [androidx.versionedparcelable:versionedparcelable:1.1.1] C:\Users\oagu1\.gradle\caches\transforms-3\233eab6c731cb1ce714d2d0256cc6f18\transformed\versionedparcelable-1.1.1\AndroidManifest.xml:20:5-22:41
MERGED from [androidx.tracing:tracing:1.0.0] C:\Users\oagu1\.gradle\caches\transforms-3\2b0f8c1393b8d656dc1b4fd4cb42a675\transformed\jetified-tracing-1.0.0\AndroidManifest.xml:20:5-22:41
MERGED from [androidx.tracing:tracing:1.0.0] C:\Users\oagu1\.gradle\caches\transforms-3\2b0f8c1393b8d656dc1b4fd4cb42a675\transformed\jetified-tracing-1.0.0\AndroidManifest.xml:20:5-22:41
MERGED from [androidx.lifecycle:lifecycle-livedata:2.0.0] C:\Users\oagu1\.gradle\caches\transforms-3\52571f97fa6c48622e09021afd8f199b\transformed\lifecycle-livedata-2.0.0\AndroidManifest.xml:20:5-44
MERGED from [androidx.lifecycle:lifecycle-livedata:2.0.0] C:\Users\oagu1\.gradle\caches\transforms-3\52571f97fa6c48622e09021afd8f199b\transformed\lifecycle-livedata-2.0.0\AndroidManifest.xml:20:5-44
MERGED from [androidx.lifecycle:lifecycle-livedata-core:2.3.1] C:\Users\oagu1\.gradle\caches\transforms-3\d17db292503a9dfb32fc2010180b8533\transformed\lifecycle-livedata-core-2.3.1\AndroidManifest.xml:20:5-22:41
MERGED from [androidx.lifecycle:lifecycle-livedata-core:2.3.1] C:\Users\oagu1\.gradle\caches\transforms-3\d17db292503a9dfb32fc2010180b8533\transformed\lifecycle-livedata-core-2.3.1\AndroidManifest.xml:20:5-22:41
MERGED from [androidx.arch.core:core-runtime:2.1.0] C:\Users\oagu1\.gradle\caches\transforms-3\f9626132104606c8a5a0763d03129850\transformed\core-runtime-2.1.0\AndroidManifest.xml:20:5-22:41
MERGED from [androidx.arch.core:core-runtime:2.1.0] C:\Users\oagu1\.gradle\caches\transforms-3\f9626132104606c8a5a0763d03129850\transformed\core-runtime-2.1.0\AndroidManifest.xml:20:5-22:41
MERGED from [com.facebook.fresco:fbcore:2.5.0] C:\Users\oagu1\.gradle\caches\transforms-3\80cae4052e041bdf30fb0fa272e54409\transformed\jetified-fbcore-2.5.0\AndroidManifest.xml:5:5-7:41
MERGED from [com.facebook.fresco:fbcore:2.5.0] C:\Users\oagu1\.gradle\caches\transforms-3\80cae4052e041bdf30fb0fa272e54409\transformed\jetified-fbcore-2.5.0\AndroidManifest.xml:5:5-7:41
MERGED from [androidx.annotation:annotation-experimental:1.0.0] C:\Users\oagu1\.gradle\caches\transforms-3\65083a7e9fb6753ce1340588a4e7a976\transformed\jetified-annotation-experimental-1.0.0\AndroidManifest.xml:20:5-22:41
MERGED from [androidx.annotation:annotation-experimental:1.0.0] C:\Users\oagu1\.gradle\caches\transforms-3\65083a7e9fb6753ce1340588a4e7a976\transformed\jetified-annotation-experimental-1.0.0\AndroidManifest.xml:20:5-22:41
INJECTED from C:\Jcodes\React Projects\eventsapp\android\app\src\debug\AndroidManifest.xml
INJECTED from C:\Jcodes\React Projects\eventsapp\android\app\src\debug\AndroidManifest.xml
	android:targetSdkVersion
		INJECTED from C:\Jcodes\React Projects\eventsapp\android\app\src\main\AndroidManifest.xml
		INJECTED from C:\Jcodes\React Projects\eventsapp\android\app\src\debug\AndroidManifest.xml
	android:minSdkVersion
		INJECTED from C:\Jcodes\React Projects\eventsapp\android\app\src\main\AndroidManifest.xml
		INJECTED from C:\Jcodes\React Projects\eventsapp\android\app\src\debug\AndroidManifest.xml
uses-permission#android.permission.SYSTEM_ALERT_WINDOW
ADDED from C:\Jcodes\React Projects\eventsapp\android\app\src\debug\AndroidManifest.xml:5:5-77
	android:name
		ADDED from C:\Jcodes\React Projects\eventsapp\android\app\src\debug\AndroidManifest.xml:5:22-75
activity#com.facebook.react.devsupport.DevSettingsActivity
ADDED from C:\Jcodes\React Projects\eventsapp\android\app\src\debug\AndroidManifest.xml:11:9-86
	android:name
		ADDED from C:\Jcodes\React Projects\eventsapp\android\app\src\debug\AndroidManifest.xml:11:19-83
uses-permission#android.permission.ACCESS_WIFI_STATE
ADDED from [com.facebook.flipper:flipper:0.99.0] C:\Users\oagu1\.gradle\caches\transforms-3\2f5725507f1929c6ddf8255f0bef77bd\transformed\jetified-flipper-0.99.0\AndroidManifest.xml:16:5-76
MERGED from [:react-native-community_netinfo] C:\Jcodes\React Projects\eventsapp\node_modules\@react-native-community\netinfo\android\build\intermediates\merged_manifest\debug\AndroidManifest.xml:10:5-76
MERGED from [:react-native-community_netinfo] C:\Jcodes\React Projects\eventsapp\node_modules\@react-native-community\netinfo\android\build\intermediates\merged_manifest\debug\AndroidManifest.xml:10:5-76
	android:name
		ADDED from [com.facebook.flipper:flipper:0.99.0] C:\Users\oagu1\.gradle\caches\transforms-3\2f5725507f1929c6ddf8255f0bef77bd\transformed\jetified-flipper-0.99.0\AndroidManifest.xml:16:22-73
provider#com.reactnativecommunity.webview.RNCWebViewFileProvider
ADDED from [:react-native-webview] C:\Jcodes\React Projects\eventsapp\node_modules\react-native-webview\android\build\intermediates\merged_manifest\debug\AndroidManifest.xml:10:9-18:20
	android:grantUriPermissions
		ADDED from [:react-native-webview] C:\Jcodes\React Projects\eventsapp\node_modules\react-native-webview\android\build\intermediates\merged_manifest\debug\AndroidManifest.xml:14:13-47
	android:authorities
		ADDED from [:react-native-webview] C:\Jcodes\React Projects\eventsapp\node_modules\react-native-webview\android\build\intermediates\merged_manifest\debug\AndroidManifest.xml:12:13-64
	android:exported
		ADDED from [:react-native-webview] C:\Jcodes\React Projects\eventsapp\node_modules\react-native-webview\android\build\intermediates\merged_manifest\debug\AndroidManifest.xml:13:13-37
	android:name
		ADDED from [:react-native-webview] C:\Jcodes\React Projects\eventsapp\node_modules\react-native-webview\android\build\intermediates\merged_manifest\debug\AndroidManifest.xml:11:13-83
meta-data#android.support.FILE_PROVIDER_PATHS
ADDED from [:react-native-webview] C:\Jcodes\React Projects\eventsapp\node_modules\react-native-webview\android\build\intermediates\merged_manifest\debug\AndroidManifest.xml:15:13-17:63
	android:resource
		ADDED from [:react-native-webview] C:\Jcodes\React Projects\eventsapp\node_modules\react-native-webview\android\build\intermediates\merged_manifest\debug\AndroidManifest.xml:17:17-60
	android:name
		ADDED from [:react-native-webview] C:\Jcodes\React Projects\eventsapp\node_modules\react-native-webview\android\build\intermediates\merged_manifest\debug\AndroidManifest.xml:16:17-67
